{
	"Settings": {
		"CheckUnpublishedMessageLogFileSize": false,
		"Dummy": "Dummy"
	},

	"TestSiteSettings": {
		"Exists": true,
		"Verbose": true,
		"All": true,
		"IPv4Prefixes": "192.168|10.1",
		"TimeZones": "Pacific Standard Time|Central Standard Time",
		"TimeZoneOffsets": "-8|-6"
	}
}
