{
	"Settings": {
		"CheckUnpublishedMessageLogFileSize": false,
		"Dummy": "Dummy"
	},

	"TestSiteSettings": {
		"Exists": true,
		"Verbose": true,
		"All": true,
		"IPv4Prefixes": "192.168|10.1",
		"TimeZones": "Pacific Standard Time|Central Standard Time",
		"TimeZoneOffsets": "-8|-6"
	},

	"LowTempZeroPressureBridgeTestInfo": {
		"Exists": true,
		"Verbose": false,
		"Enabled": true,
		"All": true,
		"Layout": 1,
		"R1": 369.59,
		"R2": 363.04,
		"R3": 357.69,
		"R4": 377.06,
		"SupplyVoltage": 5.02058,
		"SupplyVoltageDrop": 3.67312,
		"OutputVoltage": 0.011728,
		"R1Balance": 0,
		"R2Balance": 10.3,
		"R3Balance": 0,
		"R4Balance": 190.996E-6,
		"EquivalentResistance": 782,
		"RelativeOffsetEpsilon": 0.005,
		"NominalVoltage": 5,
		"VoltageSourceSeriesResistance": 1538,
		"VoltageSourceParallelResistance": 1593,
		"NominalFullScaleVoltage": 0.02,
		"NominalCurrent": 0.004,
		"CurrentSourceSeriesResistance": 636,
		"CurrentSourceParallelResistance": 150
	},
	
    
    "CurrentSourceTestInfo": {
      "Exists": true,
      "Verbose": false,
      "Enabled": true,
      "NominalVoltage": 5.0,
      "SourceResistance": 1000,
      "LoadResistance": 700,
      "SeriesResistance": 500,
      "ParallelResistance": 1100,
      "NominalCurrent": 0.004,
      "SourceConductance": 0.001
	},
	
	"VoltageSourceTestInfo": {
      "Exists": true,
      "Verbose": false,
      "Enabled": true,
      "NominalVoltage": 5.0,
      "SourceResistance": 1000,
      "LoadResistance": 700,
      "SeriesResistance": 500,
      "ParallelResistance": 1100,
      "NominalCurrent": 0.004,
      "SourceConductance": 0.001
	}
}
