{
  "Logging": {
    "LogLevel": { // All providers, LogLevel applies to all the enabled providers.
      "Default": "Error", // Default logging, Error and higher.
      "Microsoft": "Warning" // All Microsoft* categories, Warning and higher.
    },
    "Console": { // Debug provider.
      "LogLevel": {
        "Default": "Information", // Overrides preceding LogLevel:Default setting.
        "Microsoft.Hosting": "Trace" // Debug:Microsoft.Hosting category.
      }
    },
    "Debug": { // Debug provider.
      "LogLevel": {
        "Default": "Information", // Overrides preceding LogLevel:Default setting.
        "Microsoft.Hosting": "Trace" // Debug:Microsoft.Hosting category.
      }
    },
    "EventSource": { // EventSource provider
      "LogLevel": {
        "Default": "Warning" // All categories of EventSource provider.
      }
    }
  },
  "Serilog": {
    "LevelSwitches": {
      "$consoleSwitch": "Verbose",
      "$debugSwitch": "Verbose",
      "$traceSwitch": "Verbose",
      "$fileSwitch": "Verbose"
    },
    "MinimumLevel": {
      "Default": "Debug",
      "Override": {
        "Default": "Information",
        "Microsoft": "Warning",
        "Microsoft.Hosting.Lifetime": "Information"
      }
    },
    "Using": [ "Serilog.Sinks.Trace", "Serilog.Sinks.Console", "Serilog.Sinks.Debug", "Serilog.Sinks.File" ],
    "WriteTo": [
      {
        "Name": "Trace",
        "Args": {
          "levelSwitch": "$traceSwitch",
          "outputTemplate": "t::{Timestamp:HH:mm:ss.fff zzz}, [{Level:u3}], {Message}{NewLine}{Exception}"
        }
      },
      {
        "Name": "Console",
        "Args": {
          "levelSwitch": "$consoleSwitch",
          "outputTemplate": "c::{Timestamp:HH:mm:ss.fff zzz}, [{Level:u3}], {Message}{NewLine}{Exception}"
        }
      },
      {
        "Name": "Debug",
        "Args": {
          "levelSwitch": "$debugSwitch",
          "outputTemplate": "d::{Timestamp:HH:mm:ss.fff zzz}, [{Level:u3}], {Message}{NewLine}{Exception}"
        }
      },
      {
        "Name": "Async",
        "Args": {
          "configure": [
            {
              "Name": "File",
              "Args": {
                "levelSwitch": "$fileSwitch",
                "hooks": "isr.Core.Logging.SerilogHooks::MyHeaderWriter, isr.Core.Logging",
                "path": "../_logs/%ComputerName%_.log",
                "outputTemplate": "{Timestamp:HH:mm:ss.fff zzz}, [{Level:u3}], {Message}{NewLine}{Exception}",
                "rollingInterval": "Day",
                "retainedFileCountLimit": 7
              }
            }
          ]
        }
      }
    ],
    // "Enrich": [ "FromLogContext", "WithMachineName", "WithThreadId" ],
    "Destructure": [
      {
        "Name": "ToMaximumDepth",
        "Args": { "maximumDestructuringDepth": 4 }
      },
      {
        "Name": "ToMaximumStringLength",
        "Args": { "maximumStringLength": 100 }
      },
      {
        "Name": "ToMaximumCollectionCount",
        "Args": { "maximumCollectionCount": 10 }
      }
    ],
    "Properties": {
      "Application": "WinFormsBlueSplashApp"
    }
  }
}
